{
  "pagination": {
    "currentPage": 2,
    "resultsPerPage": 2,
    "totalPages": 5,
    "totalResults": 10,
    "totalAvailableItems": 10
  },
  "data": [
    {
      "application": {
        "type": {
          "value": "pp.full.householder",
          "description": "planning_permission"
        },
        "reference": "24-00107-HAPP",
        "fullReference": "PlanX-24-00107-HAPP",
        "targetDate": "2024-05-15",
        "receivedAt": "2024-04-17T00:00:00.000+01:00",
        "validAt": "2024-04-12T00:00:00.000+01:00",
        "publishedAt": null,
        "determinedAt": null,
        "decision": null,
        "status": "in_assessment",
        "consultation": {
          "startDate": "2024-04-15",
          "endDate": "2024-05-07"
        }
      },
      "property": {
        "address": {
          "latitude": 84.3630530473182,
          "longitude": -105.7502386387352,
          "title": "511 German Village",
          "singleLine": "511 German Village, West Rod, 66983",
          "uprn": "00565512",
          "town": "West Rod",
          "postcode": "66983"
        },
        "boundary": {
          "site": {
            "type": "FeatureCollection",
            "features": [
              {
                "type": "Feature",
                "geometry": {
                  "type": "Polygon",
                  "coordinates": [
                    [
                      [-0.07739927369747812, 51.501345554406896],
                      [-0.0778893839394212, 51.501002280754676],
                      [-0.07690508968054104, 51.50102474569704],
                      [-0.07676672973966252, 51.50128963605792],
                      [-0.07739927369747812, 51.501345554406896]
                    ]
                  ]
                },
                "properties": {
                  "color": "#d870fc"
                }
              },
              {
                "type": "Feature",
                "geometry": {
                  "type": "Polygon",
                  "coordinates": [
                    [
                      [30, 10],
                      [40, 40],
                      [30, 10]
                    ]
                  ]
                },
                "properties": {}
              }
            ]
          }
        }
      },
      "proposal": {
        "description": "householder extension",
        "reportingType": {
          "code": "A123",
          "description": "fake reporting type"
        },
        "ownerIsPlanningAuthority": false
      },
      "applicant": {
        "type": "individual",
        "address": {
          "sameAsSiteAddress": true
        },
        "ownership": {
          "interest": "owner.sole",
          "certificate": "a",
          "agriculturalTenants": false,
          "declaration": {
            "accurate": true
          }
        },
        "agent": {
          "address": {
            "line1": "40 Stansfield Road",
            "line2": "Brixton",
            "town": "London",
            "county": "Greater London",
            "postcode": "SW9 9RZ",
            "country": "UK"
          }
        }
      }
    },
    {
      "application": {
        "type": {
          "value": "pp.full.householder",
          "description": "planning_permission"
        },
        "reference": "24-00106-HAPP",
        "fullReference": "PlanX-24-00106-HAPP",
        "receivedAt": "2024-04-18T00:00:00.000+01:00",
        "validAt": "2024-04-19T00:00:00.000+01:00",
        "published_at": "2024-04-19T00:00:00.000+01:00",
        "determinedAt": "2024-04-20T00:00:00.000+01:00",
        "status": "determined",
        "decision": "granted",
        "consultation": {
          "startDate": "2024-03-12",
          "endDate": "2024-04-02"
        }
      },
      "property": {
        "address": {
          "latitude": -37.54605786072338,
          "longitude": -149.12320338972793,
          "title": "41874 Dare Parks",
          "singleLine": "41874 Dare Parks, Rosetteside, 23463-4689",
          "uprn": "00595249",
          "town": "Rosetteside",
          "postcode": "23463-4689"
        },
        "boundary": {
          "site": {
            "type": "Feature",
            "geometry": {
              "type": "Polygon",
              "coordinates": [
                [
                  [-0.054597, 51.537331],
                  [-0.054588, 51.537287],
                  [-0.054453, 51.537313],
                  [-0.054597, 51.537331]
                ]
              ]
            },
            "properties": null
          }
        }
      },
      "proposal": {
        "description": "Build a roof extension.",
        "reportingType": null,
        "ownerIsPlanningAuthority": false
      },
      "applicant": {
        "type": "individual",
        "address": {
          "sameAsSiteAddress": true
        },
        "siteContact": {
          "role": "applicant"
        },
        "ownership": {
          "interest": "occupier",
          "owners": [
            {
              "interest": "owner",
              "name": "Matilda Wormwood",
              "address": {
                "town": "Reading",
                "line1": "9, Library Way",
                "line2": "",
                "county": "",
                "country": "UK",
                "postcode": "L1T3R8Y"
              },
              "noticeGiven": true
            }
          ]
        },
        "agent": {
          "address": {
            "line1": "The Tree",
            "line2": "One Tree Hill",
            "town": "Great Tunnelling",
            "county": "",
            "postcode": "F0XH0L3",
            "country": ""
          }
        }
      }
    },
    {
      "application": {
        "type": { "value": "pa.part1.classA", "description": "prior_approval" },
        "reference": "25-00240-PA1A",
        "fullReference": "SWK-25-00240-PA1A",
        "targetDate": "2025-04-08",
        "expiryDate": "2025-03-25",
        "receivedAt": "2025-03-04T14:36:32.999+00:00",
        "validAt": "2025-03-04T00:00:00.000+00:00",
        "publishedAt": "2025-03-06T14:22:12.293+00:00",
        "determinedAt": null,
        "decision": null,
        "status": "Appeal allowed",
        "consultation": {
          "startDate": null,
          "endDate": null,
          "publicUrl": "https://southwark.bops-applicants.localhost:3001/planning_applications/25-00240-PA1A",
          "publishedComments": [],
          "consulteeComments": []
        },
        "pressNotice": null
      },
      "property": {
        "address": {
          "latitude": 22.87483014329466,
          "longitude": 105.04327269762632,
          "title": "7796 Sherie Mountain",
          "singleLine": "7796 Sherie Mountain, Bashirianland, 78923",
          "uprn": "00254420",
          "town": "Bashirianland",
          "postcode": "78923"
        },
        "boundary": { "site": null }
      },
      "proposal": {
        "description": "Non voluptatum quo et.",
        "reportingType": null,
        "ownerIsPlanningAuthority": false
      },
      "applicant": {
        "type": null,
        "address": null,
        "ownership": null,
        "agent": { "address": null }
      },
      "officer": { "name": "Zena Spinka" },
      "data": {
        "appeal": {
          "reason": "too slow!",
          "lodgedDate": "2025-02-26",
          "validatedDate": "2025-02-27",
          "startedDate": "2025-02-28",
          "decisionDate": "2025-03-02",
          "decision": "allowed",
          "files": [
            {
              "name": "01.png",
              "url": "/files/b48as3tuafybda00zffy1h8ym0mu",
              "type": [
                {
                  "value": "internal.appealDecision",
                  "description": "Appeal Decision"
                }
              ],
              "createdAt": "2025-03-06T20:42:18.299+00:00",
              "applicantDescription": null,
              "metadata": { "byteSize": 312599, "contentType": "image/png" }
            },
            {
              "name": "03.png",
              "url": "/files/93dj4n9hw8px6q1wgnm7hqwjwyu7",
              "type": [
                {
                  "value": "internal.appealDecision",
                  "description": "Appeal Decision"
                }
              ],
              "createdAt": "2025-03-06T20:42:18.400+00:00",
              "applicantDescription": null,
              "metadata": { "byteSize": 338776, "contentType": "image/png" }
            },
            {
              "name": "02.png",
              "url": "/files/n2jd2xor3sl8514m49a4rn8rf3p4",
              "type": [
                {
                  "value": "internal.appealDecision",
                  "description": "Appeal Decision"
                }
              ],
              "createdAt": "2025-03-06T20:42:18.415+00:00",
              "applicantDescription": null,
              "metadata": { "byteSize": 890308, "contentType": "image/png" }
            },
            {
              "name": "04.png",
              "url": "/files/gd21huup5zg82wl4qy38gia2tapx",
              "type": [
                {
                  "value": "internal.appealDecision",
                  "description": "Appeal Decision"
                }
              ],
              "createdAt": "2025-03-06T20:42:18.428+00:00",
              "applicantDescription": null,
              "metadata": { "byteSize": 258315, "contentType": "image/png" }
            }
          ]
        }
      }
    }
  ]
}
